[
    {
        "name": "Apple iPhone 13 Pro 256 ГБ",
        "price": "49 499 грн",
        "url": "https://www.istore.ua/upload/iblock/6d8/apple_iphone_13_pro_graphite_2_is.jpg",
        "article": 7,
        "color": "Black"
    },
    {
        "name": "Apple iPhone 12 Pro 128 ГБ",
        "price": "39 999 грн",
        "url": "https://www.istore.ua/upload/iblock/ad8/apple_iphone_12_pro_128gb_silver.jpg",
        "article": 6,
        "color": "Silver"
    },
    {
        "name": "Apple iPhone 11 128 GB",
        "price": "19 799 грн ",
        "url": "https://www.istore.ua/upload/resize_cache/iblock/a97/460_300_1/apple_iphone_12_mini_64gb_blue.png",
        "article": 5,
        "color": "Blue"
    },
    {
        "name": "Apple iPhone SE 64 ГБ",
        "price": "16 799 грн",
        "url": "https://www.istore.ua/upload/iblock/b11/iphone_SE_midnight_2022_2_is.jpg",
        "article": 4,
        "color": "Midnight"
    },
    {
        "name": "Apple iPhone 12 mini 64 ГБ",
        "price": "18 999 грн",
        "url": "https://www.istore.ua/upload/iblock/ad8/apple_iphone_12_pro_128gb_silver.jpg",
        "article": 3,
        "color": "Silver"
    },
    {
        "name": "Apple iPhone 12 64 Б/У",
        "price": "21 999 грн",
        "url": "https://mygadget.ua/image/cache/catalog/used/new_font_size/iphone_12/6(2)-min-max-430.jpg",
        "article": 2,
        "color": "Product Red"
    },
    {
        "name": "Apple iPhone 13 128 ГБ",
        "price": "32 499 грн",
        "url": "https://www.istore.ua/upload/iblock/0c9/apple_iphone_13_pink_5_is.jpg",
        "article": 1,
        "color": "Pink"
    },
    {
        "name": "Apple iPhone Xs Max 64 ГБ Б/У",
        "price": "14 999 грн",
        "url": "https://www.istore.ua/upload/iblock/a28/apple_iphone_xs_max_256_gb_seryy_kosmos.jpeg",
        "article": 8,
        "color": "Space Gray"
    },
    {
        "name": "Apple iPhone Xs 64 ГБ Б/У",
        "price": "13 999 грн",
        "url": "https://www.istore.ua/upload/iblock/455/apple_iphone_xs_64gb_gold.jpeg",
        "article": 9,
        "color": "Gold"
    },
    {
        "name": "Apple iPhone 8 Plus 64 ГБ Б/У",
        "price": "6 799 грн",
        "url": "https://www.istore.ua/upload/iblock/8a3/apple_iphone_8_plus_gold_image_02.jpeg",
        "article": 10,
        "color": "Gold"
    },
    {
        "name": "Apple iPhone 6s 64 ГБ Б/У (Space Gray)",
        "price": "3 299 грн",
        "url": "https://www.istore.ua/upload/iblock/cb7/apple_iphone_6s_32_gb_seryy_kosmos.jpg",
        "article": 11,
        "color": "Gray"
    },
    {
        "name": "Apple iPhone 7 128 ГБ Б/У (Black)",
        "price": "6 799 грн",
        "url": "https://www.istore.ua/upload/iblock/fa8/apple_iphone_7_32gb_black.jpeg",
        "article": 12,
        "color": "Black"
    }
]